Memory Hierarchy Project/MemHierarchy Project/MemHierarchy3.sim/sim_1/behav/xsim/simulate.log
Time resolution is 1 ps
Time =                35000, Addr = 00000000, Data = 00000000, Read = 0, Write = 1, Ready = 1, Hit = 0, Miss = 1, Dirty Bit = x
Time =                55000, Addr = 00000000, Data = 000000aa, Read = 1, Write = 0, Ready = 1, Hit = 1, Miss = 0, Dirty Bit = 0
Time =                65000, Addr = 00000004, Data = 00000000, Read = 0, Write = 1, Ready = 1, Hit = 1, Miss = 0, Dirty Bit = 0
Time =                75000, Addr = 00000004, Data = 000000aa, Read = 0, Write = 1, Ready = 1, Hit = 1, Miss = 0, Dirty Bit = 1
Time =                85000, Addr = 00000004, Data = 000000aa, Read = 1, Write = 0, Ready = 1, Hit = 1, Miss = 0, Dirty Bit = 1
Time =                95000, Addr = 00000004, Data = 000000ab, Read = 1, Write = 0, Ready = 1, Hit = 1, Miss = 0, Dirty Bit = 1
Time =               105000, Addr = 00000008, Data = 000000aa, Read = 0, Write = 1, Ready = 1, Hit = 1, Miss = 0, Dirty Bit = 1
Time =               115000, Addr = 00000008, Data = 000000ab, Read = 0, Write = 1, Ready = 1, Hit = 1, Miss = 0, Dirty Bit = 1
Time =               125000, Addr = 00000008, Data = 000000ab, Read = 1, Write = 0, Ready = 1, Hit = 1, Miss = 0, Dirty Bit = 1
Time =               135000, Addr = 00000008, Data = 000000ac, Read = 1, Write = 0, Ready = 1, Hit = 1, Miss = 0, Dirty Bit = 1
Time =               145000, Addr = 0000000c, Data = 000000ab, Read = 0, Write = 1, Ready = 1, Hit = 1, Miss = 0, Dirty Bit = 1
Time =               155000, Addr = 0000000c, Data = 000000ac, Read = 0, Write = 1, Ready = 1, Hit = 1, Miss = 0, Dirty Bit = 1
Time =               165000, Addr = 0000000c, Data = 000000ac, Read = 1, Write = 0, Ready = 1, Hit = 1, Miss = 0, Dirty Bit = 1
Time =               175000, Addr = 0000000c, Data = 000000ad, Read = 1, Write = 0, Ready = 1, Hit = 1, Miss = 0, Dirty Bit = 1
Time =               185000, Addr = 00000010, Data = 000000ac, Read = 0, Write = 1, Ready = 1, Hit = 1, Miss = 0, Dirty Bit = 1
Time =               195000, Addr = 00000010, Data = 000000ad, Read = 0, Write = 1, Ready = 1, Hit = 1, Miss = 0, Dirty Bit = 1
Time =               205000, Addr = 00000010, Data = 000000ad, Read = 1, Write = 0, Ready = 1, Hit = 0, Miss = 1, Dirty Bit = 0
Time =               215000, Addr = 00000010, Data = 000000ae, Read = 1, Write = 0, Ready = 1, Hit = 0, Miss = 1, Dirty Bit = 0
Time =               225000, Addr = 00000014, Data = 000000ad, Read = 0, Write = 1, Ready = 1, Hit = 1, Miss = 0, Dirty Bit = 0
Time =               235000, Addr = 00000014, Data = 000000ae, Read = 0, Write = 1, Ready = 1, Hit = 1, Miss = 0, Dirty Bit = 1
Time =               245000, Addr = 00000014, Data = 000000ae, Read = 1, Write = 0, Ready = 1, Hit = 1, Miss = 0, Dirty Bit = 1
Time =               255000, Addr = 00000014, Data = 000000af, Read = 1, Write = 0, Ready = 1, Hit = 1, Miss = 0, Dirty Bit = 1
Time =               265000, Addr = 00000018, Data = 000000ae, Read = 0, Write = 1, Ready = 1, Hit = 1, Miss = 0, Dirty Bit = 1
Time =               275000, Addr = 00000018, Data = 000000af, Read = 0, Write = 1, Ready = 1, Hit = 1, Miss = 0, Dirty Bit = 1
Time =               285000, Addr = 00000018, Data = 000000af, Read = 1, Write = 0, Ready = 1, Hit = 1, Miss = 0, Dirty Bit = 1
Time =               295000, Addr = 00000018, Data = 000000b0, Read = 1, Write = 0, Ready = 1, Hit = 1, Miss = 0, Dirty Bit = 1
Time =               305000, Addr = 0000001c, Data = 000000af, Read = 0, Write = 1, Ready = 1, Hit = 1, Miss = 0, Dirty Bit = 1
Time =               315000, Addr = 0000001c, Data = 000000b0, Read = 0, Write = 1, Ready = 1, Hit = 1, Miss = 0, Dirty Bit = 1
Time =               325000, Addr = 0000001c, Data = 000000b0, Read = 1, Write = 0, Ready = 1, Hit = 1, Miss = 0, Dirty Bit = 1
Time =               335000, Addr = 0000001c, Data = 000000b1, Read = 1, Write = 0, Ready = 1, Hit = 1, Miss = 0, Dirty Bit = 1
Time =               345000, Addr = 00000020, Data = 000000b0, Read = 0, Write = 1, Ready = 1, Hit = 1, Miss = 0, Dirty Bit = 1
Time =               355000, Addr = 00000020, Data = 000000b1, Read = 0, Write = 1, Ready = 1, Hit = 1, Miss = 0, Dirty Bit = 1
Time =               365000, Addr = 00000020, Data = 000000b1, Read = 1, Write = 0, Ready = 1, Hit = 0, Miss = 1, Dirty Bit = 0
Time =               375000, Addr = 00000020, Data = 000000b2, Read = 1, Write = 0, Ready = 1, Hit = 0, Miss = 1, Dirty Bit = 0
Time =               385000, Addr = 00000024, Data = 000000b1, Read = 0, Write = 1, Ready = 1, Hit = 1, Miss = 0, Dirty Bit = 0
Time =               395000, Addr = 00000024, Data = 000000b2, Read = 0, Write = 1, Ready = 1, Hit = 1, Miss = 0, Dirty Bit = 1
Time =               405000, Addr = 00000024, Data = 000000b2, Read = 1, Write = 0, Ready = 1, Hit = 1, Miss = 0, Dirty Bit = 1
Time =               415000, Addr = 00000024, Data = 000000b3, Read = 1, Write = 0, Ready = 1, Hit = 1, Miss = 0, Dirty Bit = 1
Time =               425000, Addr = 00001000, Data = 000000b2, Read = 0, Write = 1, Ready = 1, Hit = 1, Miss = 0, Dirty Bit = 1
Time =               435000, Addr = 00001000, Data = 000000b3, Read = 0, Write = 1, Ready = 1, Hit = 1, Miss = 0, Dirty Bit = 1
Time =               445000, Addr = 00001000, Data = 000000b3, Read = 1, Write = 0, Ready = 1, Hit = 0, Miss = 1, Dirty Bit = 1
Time =               455000, Addr = 00001000, Data = 00000055, Read = 1, Write = 0, Ready = 1, Hit = 0, Miss = 1, Dirty Bit = 1
Time =               465000, Addr = 00001004, Data = 000000b3, Read = 0, Write = 1, Ready = 1, Hit = 1, Miss = 0, Dirty Bit = 1
Time =               475000, Addr = 00001004, Data = 00000055, Read = 0, Write = 1, Ready = 1, Hit = 1, Miss = 0, Dirty Bit = 1
Time =               485000, Addr = 00001004, Data = 00000055, Read = 1, Write = 0, Ready = 1, Hit = 1, Miss = 0, Dirty Bit = 1
Time =               495000, Addr = 00001004, Data = 00000056, Read = 1, Write = 0, Ready = 1, Hit = 1, Miss = 0, Dirty Bit = 1
Time =               505000, Addr = 00001008, Data = 00000055, Read = 0, Write = 1, Ready = 1, Hit = 1, Miss = 0, Dirty Bit = 1
Time =               515000, Addr = 00001008, Data = 00000056, Read = 0, Write = 1, Ready = 1, Hit = 1, Miss = 0, Dirty Bit = 1
Time =               525000, Addr = 00001008, Data = 00000056, Read = 1, Write = 0, Ready = 1, Hit = 1, Miss = 0, Dirty Bit = 1
Time =               535000, Addr = 00001008, Data = 00000057, Read = 1, Write = 0, Ready = 1, Hit = 1, Miss = 0, Dirty Bit = 1
Time =               545000, Addr = 0000100c, Data = 00000056, Read = 0, Write = 1, Ready = 1, Hit = 1, Miss = 0, Dirty Bit = 1
Time =               555000, Addr = 0000100c, Data = 00000057, Read = 0, Write = 1, Ready = 1, Hit = 1, Miss = 0, Dirty Bit = 1
Time =               565000, Addr = 0000100c, Data = 00000057, Read = 1, Write = 0, Ready = 1, Hit = 1, Miss = 0, Dirty Bit = 1
Time =               575000, Addr = 0000100c, Data = 00000058, Read = 1, Write = 0, Ready = 1, Hit = 1, Miss = 0, Dirty Bit = 1
Time =               585000, Addr = 00001010, Data = 00000057, Read = 0, Write = 1, Ready = 1, Hit = 1, Miss = 0, Dirty Bit = 1
Time =               595000, Addr = 00001010, Data = 00000058, Read = 0, Write = 1, Ready = 1, Hit = 1, Miss = 0, Dirty Bit = 1
Time =               605000, Addr = 00001010, Data = 00000058, Read = 1, Write = 0, Ready = 1, Hit = 0, Miss = 1, Dirty Bit = 1
Time =               615000, Addr = 00001010, Data = 00000059, Read = 1, Write = 0, Ready = 1, Hit = 0, Miss = 1, Dirty Bit = 1
Time =               625000, Addr = 00001014, Data = 00000058, Read = 0, Write = 1, Ready = 1, Hit = 1, Miss = 0, Dirty Bit = 1
Time =               635000, Addr = 00001014, Data = 00000059, Read = 0, Write = 1, Ready = 1, Hit = 1, Miss = 0, Dirty Bit = 1
Time =               645000, Addr = 00001014, Data = 00000059, Read = 1, Write = 0, Ready = 1, Hit = 1, Miss = 0, Dirty Bit = 1
Time =               655000, Addr = 00001014, Data = 0000005a, Read = 1, Write = 0, Ready = 1, Hit = 1, Miss = 0, Dirty Bit = 1
Time =               665000, Addr = 00001018, Data = 00000059, Read = 0, Write = 1, Ready = 1, Hit = 1, Miss = 0, Dirty Bit = 1
Time =               675000, Addr = 00001018, Data = 0000005a, Read = 0, Write = 1, Ready = 1, Hit = 1, Miss = 0, Dirty Bit = 1
Time =               685000, Addr = 00001018, Data = 0000005a, Read = 1, Write = 0, Ready = 1, Hit = 1, Miss = 0, Dirty Bit = 1
Time =               695000, Addr = 00001018, Data = 0000005b, Read = 1, Write = 0, Ready = 1, Hit = 1, Miss = 0, Dirty Bit = 1
Time =               705000, Addr = 0000101c, Data = 0000005a, Read = 0, Write = 1, Ready = 1, Hit = 1, Miss = 0, Dirty Bit = 1
Time =               715000, Addr = 0000101c, Data = 0000005b, Read = 0, Write = 1, Ready = 1, Hit = 1, Miss = 0, Dirty Bit = 1
Time =               725000, Addr = 0000101c, Data = 0000005b, Read = 1, Write = 0, Ready = 1, Hit = 1, Miss = 0, Dirty Bit = 1
Time =               735000, Addr = 0000101c, Data = 0000005c, Read = 1, Write = 0, Ready = 1, Hit = 1, Miss = 0, Dirty Bit = 1
Time =               745000, Addr = 00001020, Data = 0000005b, Read = 0, Write = 1, Ready = 1, Hit = 1, Miss = 0, Dirty Bit = 1
Time =               755000, Addr = 00001020, Data = 0000005c, Read = 0, Write = 1, Ready = 1, Hit = 1, Miss = 0, Dirty Bit = 1
Time =               765000, Addr = 00001020, Data = 0000005c, Read = 1, Write = 0, Ready = 1, Hit = 0, Miss = 1, Dirty Bit = 1
Time =               775000, Addr = 00001020, Data = 0000005d, Read = 1, Write = 0, Ready = 1, Hit = 0, Miss = 1, Dirty Bit = 1
Time =               785000, Addr = 00001024, Data = 0000005c, Read = 0, Write = 1, Ready = 1, Hit = 1, Miss = 0, Dirty Bit = 1
Time =               795000, Addr = 00001024, Data = 0000005d, Read = 0, Write = 1, Ready = 1, Hit = 1, Miss = 0, Dirty Bit = 1
Time =               805000, Addr = 00001024, Data = 0000005d, Read = 1, Write = 0, Ready = 1, Hit = 1, Miss = 0, Dirty Bit = 1
Time =               815000, Addr = 00001024, Data = 0000005e, Read = 1, Write = 0, Ready = 1, Hit = 1, Miss = 0, Dirty Bit = 1
Time =               825000, Addr = 00001024, Data = 0000005d, Read = 0, Write = 0, Ready = 1, Hit = 1, Miss = 0, Dirty Bit = 1
Time =               835000, Addr = 00001024, Data = 0000005e, Read = 0, Write = 0, Ready = 1, Hit = 1, Miss = 0, Dirty Bit = 1
Hit Count:          69
Miss Count:          11
Total Operations:          80
Hit Rate: 0.000000%
Miss Rate: 0.000000%
Time =               845000, Addr = 00001024, Data = 0000005e, Read = 0, Write = 0, Ready = 1, Hit = 1, Miss = 0, Dirty Bit = 1
Time =               855000, Addr = 00001024, Data = 0000005e, Read = 0, Write = 0, Ready = 1, Hit = 1, Miss = 0, Dirty Bit = 1
$finish called at time : 860 ns : File "C:/Users/91982/MemHierarchy3/MemHierarchy3.srcs/sources_1/new/tb_cpu_interface.sv" Line 165
