Memory Hierarchy Project/MemHierarchy Project/MemHierarchy3.sim/sim_1/behav/xsim/tb_cpu_interface.vcd
$date
   Wed Jun 25 13:59:22 2025
$end

$version
  2024.2.0
  $dumpfile ("tb_cpu_interface.vcd") 
$end

$timescale
  1ps
$end

$scope module tb_cpu_interface $end
$var reg 1 ! clk $end
$var reg 1 " rst $end
$var reg 32 # cpu_addr [31:0] $end
$var reg 32 $ cpu_data_in [31:0] $end
$var reg 1 % cpu_read $end
$var reg 1 & cpu_write $end
$var reg 32 ' cpu_data_out [31:0] $end
$var reg 1 ( cpu_ready $end
$var reg 1 ) cache_hit $end
$var reg 1 * cache_miss $end
$var reg 1 + cache_dirty_bit_status $end
$var reg 32 , dram_addr [31:0] $end
$var reg 32 - dram_data_in [31:0] $end
$var reg 1 . dram_read $end
$var reg 1 / dram_write $end
$var reg 32 0 dram_data_out [31:0] $end
$var reg 1 1 dram_ready $end
$var reg 32 2 hit_count [31:0] $end
$var reg 32 3 miss_count [31:0] $end
$var reg 32 4 total_ops [31:0] $end
$scope module cpu_interface_inst $end
$var wire 1 5 clk $end
$var wire 1 6 rst $end
$var wire 32 7 cpu_addr [31:0] $end
$var wire 32 8 cpu_data_in [31:0] $end
$var wire 1 9 cpu_read $end
$var wire 1 : cpu_write $end
$var reg 32 ' cpu_data_out [31:0] $end
$var reg 1 ( cpu_ready $end
$var reg 1 ) hit $end
$var reg 1 * miss $end
$var reg 1 + dirty_bit_status $end
$var reg 32 ; cache_addr [31:0] $end
$var reg 32 < cache_data_in [31:0] $end
$var reg 1 = cache_read $end
$var reg 1 > cache_write $end
$var reg 32 ? cache_data_out [31:0] $end
$var reg 1 @ cache_ready $end
$var reg 1 A cache_hit $end
$var reg 1 B cache_miss $end
$var reg 1 C cache_dirty_bit_status $end
$scope module cache_inst $end
$var wire 1 5 clk $end
$var wire 1 6 rst $end
$var wire 32 D addr [31:0] $end
$var wire 32 E data_in [31:0] $end
$var wire 1 F read $end
$var wire 1 G write $end
$var reg 32 ? data_out [31:0] $end
$var reg 1 @ ready $end
$var reg 1 A hit $end
$var reg 1 B miss $end
$var reg 1 C dirty_bit_status $end
$var wire 32 H dram_data_out [31:0] $end
$var wire 1 I dram_ready $end
$var reg 32 J dram_addr [31:0] $end
$var reg 32 K dram_data_in [31:0] $end
$var reg 1 L dram_read $end
$var reg 1 M dram_write $end
$var reg 64 N dirty_bits [63:0] $end
$var reg 64 O valid_bits [63:0] $end
$var reg 32 P cache_addr [31:0] $end
$var reg 32 Q cache_data_out [31:0] $end
$var reg 1 R cache_ready $end
$var reg 1 S cache_hit $end
$var reg 1 T cache_miss $end
$var reg 1 U cache_dirty_bit_status $end
$var reg 32 V internal_dram_addr [31:0] $end
$var reg 32 W internal_dram_data_in [31:0] $end
$var reg 1 X internal_dram_read $end
$var reg 1 Y internal_dram_write $end
$scope begin Block55_1 $end
$var reg 7 Z index [6:0] $end
$var reg 22 [ tag [21:0] $end
$upscope $end
$scope begin Block82_2 $end
$var reg 7 \ index [6:0] $end
$var reg 22 ] tag [21:0] $end
$upscope $end
$upscope $end
$upscope $end
$scope module cache_inst $end
$var wire 1 ^ clk $end
$var wire 1 _ rst $end
$var wire 32 ` addr [31:0] $end
$var wire 32 a data_in [31:0] $end
$var wire 1 b read $end
$var wire 1 c write $end
$var reg 32 ' data_out [31:0] $end
$var reg 1 ( ready $end
$var reg 1 ) hit $end
$var reg 1 * miss $end
$var reg 1 + dirty_bit_status $end
$var wire 32 d dram_data_out [31:0] $end
$var wire 1 e dram_ready $end
$var reg 32 , dram_addr [31:0] $end
$var reg 32 - dram_data_in [31:0] $end
$var reg 1 . dram_read $end
$var reg 1 / dram_write $end
$var reg 64 f dirty_bits [63:0] $end
$var reg 64 g valid_bits [63:0] $end
$var reg 32 h cache_addr [31:0] $end
$var reg 32 i cache_data_out [31:0] $end
$var reg 1 j cache_ready $end
$var reg 1 k cache_hit $end
$var reg 1 l cache_miss $end
$var reg 1 m cache_dirty_bit_status $end
$var reg 32 n internal_dram_addr [31:0] $end
$var reg 32 o internal_dram_data_in [31:0] $end
$var reg 1 p internal_dram_read $end
$var reg 1 q internal_dram_write $end
$scope begin Block55_1 $end
$var reg 7 r index [6:0] $end
$var reg 22 s tag [21:0] $end
$upscope $end
$scope begin Block82_2 $end
$var reg 7 t index [6:0] $end
$var reg 22 u tag [21:0] $end
$upscope $end
$upscope $end
$scope module dram_inst $end
$var wire 1 v clk $end
$var wire 1 w rst $end
$var wire 32 x addr [31:0] $end
$var wire 32 y data_in [31:0] $end
$var wire 1 z read $end
$var wire 1 { write $end
$var reg 32 0 data_out [31:0] $end
$var reg 1 1 ready $end
$var reg 32 | dram_data_out [31:0] $end
$var reg 1 } dram_ready $end
$upscope $end
$scope begin Block119_8 $end
$var reg 32 ~ i [31:0] $end
$upscope $end
$scope begin Block135_9 $end
$var reg 32 !! i [31:0] $end
$upscope $end
$upscope $end
$enddefinitions $end

#0
$dumpvars
0!
b0 !!
1"
b0 #
b0 $
0%
0&
bx '
x(
x)
x*
x+
b0 ,
b0 -
0.
0/
bx 0
x1
b0 2
b0 3
b0 4
05
16
b0 7
b0 8
09
0:
bx ;
bx <
x=
x>
bx ?
x@
xA
xB
xC
bx D
bx E
xF
xG
bz H
zI
bx J
bx K
xL
xM
bx N
bx O
bx P
bx Q
xR
xS
xT
xU
bx V
bx W
xX
xY
bx Z
bx [
bx \
bx ]
0^
1_
b0 `
b0 a
0b
0c
bx d
xe
bx f
bx g
bx h
bx i
xj
xk
xl
xm
bx n
bx o
xp
xq
bx r
bx s
bx t
bx u
0v
1w
b0 x
b0 y
0z
0{
bx |
x}
b0 ~
$end

#5000
1!
b0 '
0(
0)
0*
0+
b0 0
01
15
b0 ?
0@
0A
0B
0C
b0 N
b0 O
b0 Q
0R
0S
0T
0U
1^
b0 d
0e
b0 f
b0 g
b0 i
0j
0k
0l
0m
1v
b0 |
0}

#10000
0!
05
0^
0v

#15000
1!
15
1^
1v

#20000
0!
0"
b10101010101010101010101010101010 $
1&
05
06
b10101010101010101010101010101010 8
1:
0^
0_
b10101010101010101010101010101010 a
1c
0v
0w

#25000
1!
1(
1*
x+
b10101010101010101010101010101010 -
1/
15
b0 ;
b10101010101010101010101010101010 <
0=
1>
b0 D
b10101010101010101010101010101010 E
0F
1G
1^
b0 h
1j
1l
xm
b10101010101010101010101010101010 o
0p
1q
b0xxxxxx r
1v
b10101010101010101010101010101010 y
1{

#30000
0!
05
0^
0v

#35000
1!
0(
x+
11
b1 3
15
1@
1B
xC
b10101010101010101010101010101010 K
0L
1M
b0 P
1R
1T
xU
b10101010101010101010101010101010 W
0X
1Y
b0xxxxxx Z
1^
1e
b1 f
b1 g
0m
b0 n
b0 r
b0 s
1v
1}

#40000
0!
1%
0&
05
19
0:
0^
1b
0c
0v

#45000
1!
b10101010 '
1(
1)
0*
0+
15
1=
0>
0C
1F
0G
b0 J
b1 N
b1 O
0U
b0 V
b0 Z
b0 [
1^
b10101010 i
1k
0l
b0 t
b0 u
1v

#50000
0!
05
0^
0v

#55000
1!
b0 '
b1 2
15
b10101010 ?
1A
0B
b10101010 Q
1S
0T
b0 \
b0 ]
1^
1v

#60000
0!
b100 #
b10101010101010101010101010101011 $
0%
1&
05
b100 7
b10101010101010101010101010101011 8
09
1:
0^
b100 `
b10101010101010101010101010101011 a
0b
1c
0v
b1 ~

#65000
1!
b10101010 '
1+
b10 2
15
b100 ;
b10101010101010101010101010101011 <
0=
1>
b100 D
b10101010101010101010101010101011 E
0F
1G
1^
b100 h
1m
1v

#70000
0!
05
0^
0v

#75000
1!
b11 2
15
1C
b100 P
1U
1^
1v

#80000
0!
1%
0&
05
19
0:
0^
1b
0c
0v

#85000
1!
b10101011 '
b100 2
15
1=
0>
1F
0G
1^
b10101011 i
1v

#90000
0!
05
0^
0v

#95000
1!
b10101010 '
b101 2
15
b10101011 ?
b10101011 Q
1^
1v

#100000
0!
b1000 #
b10101010101010101010101010101100 $
0%
1&
05
b1000 7
b10101010101010101010101010101100 8
09
1:
0^
b1000 `
b10101010101010101010101010101100 a
0b
1c
0v
b10 ~

#105000
1!
b10101011 '
b110 2
15
b1000 ;
b10101010101010101010101010101100 <
0=
1>
b1000 D
b10101010101010101010101010101100 E
0F
1G
1^
b1000 h
1v

#110000
0!
05
0^
0v

#115000
1!
b111 2
15
b1000 P
1^
1v

#120000
0!
1%
0&
05
19
0:
0^
1b
0c
0v

#125000
1!
b10101100 '
b1000 2
15
1=
0>
1F
0G
1^
b10101100 i
1v

#130000
0!
05
0^
0v

#135000
1!
b10101011 '
b1001 2
15
b10101100 ?
b10101100 Q
1^
1v

#140000
0!
b1100 #
b10101010101010101010101010101101 $
0%
1&
05
b1100 7
b10101010101010101010101010101101 8
09
1:
0^
b1100 `
b10101010101010101010101010101101 a
0b
1c
0v
b11 ~

#145000
1!
b10101100 '
b1010 2
15
b1100 ;
b10101010101010101010101010101101 <
0=
1>
b1100 D
b10101010101010101010101010101101 E
0F
1G
1^
b1100 h
1v

#150000
0!
05
0^
0v

#155000
1!
b1011 2
15
b1100 P
1^
1v

#160000
0!
1%
0&
05
19
0:
0^
1b
0c
0v

#165000
1!
b10101101 '
b1100 2
15
1=
0>
1F
0G
1^
b10101101 i
1v

#170000
0!
05
0^
0v

#175000
1!
b10101100 '
b1101 2
15
b10101101 ?
b10101101 Q
1^
1v

#180000
0!
b10000 #
b10101010101010101010101010101110 $
0%
1&
05
b10000 7
b10101010101010101010101010101110 8
09
1:
0^
b10000 `
b10101010101010101010101010101110 a
0b
1c
0v
b100 ~

#185000
1!
b10101101 '
b1110 2
15
b10000 ;
b10101010101010101010101010101110 <
0=
1>
b10000 D
b10101010101010101010101010101110 E
0F
1G
1^
b10000 h
1v

#190000
0!
05
0^
0v

#195000
1!
0)
1*
0+
b10000 ,
b10101010101010101010101010101110 -
b1111 2
15
b10000 P
1^
b11 f
b11 g
0k
1l
0m
b10000 n
b10101010101010101010101010101110 o
b1 r
1v
b10000 x
b10101010101010101010101010101110 y

#200000
0!
1%
0&
05
19
0:
0^
1b
0c
0v

#205000
1!
b10101110 '
0)
1*
b10 3
15
1=
0>
0A
1B
0C
1F
0G
b10000 J
b10101010101010101010101010101110 K
b11 N
b11 O
0S
1T
0U
b10000 V
b10101010101010101010101010101110 W
b1 Z
1^
b10101110 i
1k
0l
b1 t
1v

#210000
0!
05
0^
0v

#215000
1!
b10101101 '
1)
0*
b11 3
15
b10101110 ?
1A
0B
b10101110 Q
1S
0T
b1 \
1^
1v

#220000
0!
b10100 #
b10101010101010101010101010101111 $
0%
1&
05
b10100 7
b10101010101010101010101010101111 8
09
1:
0^
b10100 `
b10101010101010101010101010101111 a
0b
1c
0v
b101 ~

#225000
1!
b10101110 '
1+
b10000 2
15
b10100 ;
b10101010101010101010101010101111 <
0=
1>
b10100 D
b10101010101010101010101010101111 E
0F
1G
1^
b10100 h
1m
1v

#230000
0!
05
0^
0v

#235000
1!
b10001 2
15
1C
b10100 P
1U
1^
1v

#240000
0!
1%
0&
05
19
0:
0^
1b
0c
0v

#245000
1!
b10101111 '
b10010 2
15
1=
0>
1F
0G
1^
b10101111 i
1v

#250000
0!
05
0^
0v

#255000
1!
b10101110 '
b10011 2
15
b10101111 ?
b10101111 Q
1^
1v

#260000
0!
b11000 #
b10101010101010101010101010110000 $
0%
1&
05
b11000 7
b10101010101010101010101010110000 8
09
1:
0^
b11000 `
b10101010101010101010101010110000 a
0b
1c
0v
b110 ~

#265000
1!
b10101111 '
b10100 2
15
b11000 ;
b10101010101010101010101010110000 <
0=
1>
b11000 D
b10101010101010101010101010110000 E
0F
1G
1^
b11000 h
1v

#270000
0!
05
0^
0v

#275000
1!
b10101 2
15
b11000 P
1^
1v

#280000
0!
1%
0&
05
19
0:
0^
1b
0c
0v

#285000
1!
b10110000 '
b10110 2
15
1=
0>
1F
0G
1^
b10110000 i
1v

#290000
0!
05
0^
0v

#295000
1!
b10101111 '
b10111 2
15
b10110000 ?
b10110000 Q
1^
1v

#300000
0!
b11100 #
b10101010101010101010101010110001 $
0%
1&
05
b11100 7
b10101010101010101010101010110001 8
09
1:
0^
b11100 `
b10101010101010101010101010110001 a
0b
1c
0v
b111 ~

#305000
1!
b10110000 '
b11000 2
15
b11100 ;
b10101010101010101010101010110001 <
0=
1>
b11100 D
b10101010101010101010101010110001 E
0F
1G
1^
b11100 h
1v

#310000
0!
05
0^
0v

#315000
1!
b11001 2
15
b11100 P
1^
1v

#320000
0!
1%
0&
05
19
0:
0^
1b
0c
0v

#325000
1!
b10110001 '
b11010 2
15
1=
0>
1F
0G
1^
b10110001 i
1v

#330000
0!
05
0^
0v

#335000
1!
b10110000 '
b11011 2
15
b10110001 ?
b10110001 Q
1^
1v

#340000
0!
b100000 #
b10101010101010101010101010110010 $
0%
1&
05
b100000 7
b10101010101010101010101010110010 8
09
1:
0^
b100000 `
b10101010101010101010101010110010 a
0b
1c
0v
b1000 ~

#345000
1!
b10110001 '
b11100 2
15
b100000 ;
b10101010101010101010101010110010 <
0=
1>
b100000 D
b10101010101010101010101010110010 E
0F
1G
1^
b100000 h
1v

#350000
0!
05
0^
0v

#355000
1!
0)
1*
0+
b100000 ,
b10101010101010101010101010110010 -
b11101 2
15
b100000 P
1^
b111 f
b111 g
0k
1l
0m
b100000 n
b10101010101010101010101010110010 o
b10 r
1v
b100000 x
b10101010101010101010101010110010 y

#360000
0!
1%
0&
05
19
0:
0^
1b
0c
0v

#365000
1!
b10110010 '
0)
1*
b100 3
15
1=
0>
0A
1B
0C
1F
0G
b100000 J
b10101010101010101010101010110010 K
b111 N
b111 O
0S
1T
0U
b100000 V
b10101010101010101010101010110010 W
b10 Z
1^
b10110010 i
1k
0l
b10 t
1v

#370000
0!
05
0^
0v

#375000
1!
b10110001 '
1)
0*
b101 3
15
b10110010 ?
1A
0B
b10110010 Q
1S
0T
b10 \
1^
1v

#380000
0!
b100100 #
b10101010101010101010101010110011 $
0%
1&
05
b100100 7
b10101010101010101010101010110011 8
09
1:
0^
b100100 `
b10101010101010101010101010110011 a
0b
1c
0v
b1001 ~

#385000
1!
b10110010 '
1+
b11110 2
15
b100100 ;
b10101010101010101010101010110011 <
0=
1>
b100100 D
b10101010101010101010101010110011 E
0F
1G
1^
b100100 h
1m
1v

#390000
0!
05
0^
0v

#395000
1!
b11111 2
15
1C
b100100 P
1U
1^
1v

#400000
0!
1%
0&
05
19
0:
0^
1b
0c
0v

#405000
1!
b10110011 '
b100000 2
15
1=
0>
1F
0G
1^
b10110011 i
1v

#410000
0!
05
0^
0v

#415000
1!
b10110010 '
b100001 2
15
b10110011 ?
b10110011 Q
1^
1v

#420000
0!
b1000000000000 #
b1010101010101010101010101010101 $
0%
1&
05
b1000000000000 7
b1010101010101010101010101010101 8
09
1:
0^
b1000000000000 `
b1010101010101010101010101010101 a
0b
1c
0v
b1010 ~

#425000
1!
b10110011 '
b100010 2
15
b1000000000000 ;
b1010101010101010101010101010101 <
0=
1>
b1000000000000 D
b1010101010101010101010101010101 E
0F
1G
1^
b1000000000000 h
1v

#430000
0!
05
0^
0v

#435000
1!
0)
1*
b1000000000000 ,
b1010101010101010101010101010101 -
b100011 2
15
b1000000000000 P
1^
0k
1l
b1000000000000 n
b1010101010101010101010101010101 o
b0 r
b100 s
1v
b1000000000000 x
b1010101010101010101010101010101 y

#440000
0!
1%
0&
05
19
0:
0^
1b
0c
0v

#445000
1!
b1010101 '
0)
1*
b110 3
15
1=
0>
0A
1B
1F
0G
b1000000000000 J
b1010101010101010101010101010101 K
0S
1T
b1000000000000 V
b1010101010101010101010101010101 W
b0 Z
b100 [
1^
b1010101 i
1k
0l
b0 t
b100 u
1v

#450000
0!
05
0^
0v

#455000
1!
b10110011 '
1)
0*
b111 3
15
b1010101 ?
1A
0B
b1010101 Q
1S
0T
b0 \
b100 ]
1^
1v

#460000
0!
b1 !!
b1000000000100 #
b1010101010101010101010101010110 $
0%
1&
05
b1000000000100 7
b1010101010101010101010101010110 8
09
1:
0^
b1000000000100 `
b1010101010101010101010101010110 a
0b
1c
0v

#465000
1!
b1010101 '
b100100 2
15
b1000000000100 ;
b1010101010101010101010101010110 <
0=
1>
b1000000000100 D
b1010101010101010101010101010110 E
0F
1G
1^
b1000000000100 h
1v

#470000
0!
05
0^
0v

#475000
1!
b100101 2
15
b1000000000100 P
1^
1v

#480000
0!
1%
0&
05
19
0:
0^
1b
0c
0v

#485000
1!
b1010110 '
b100110 2
15
1=
0>
1F
0G
1^
b1010110 i
1v

#490000
0!
05
0^
0v

#495000
1!
b1010101 '
b100111 2
15
b1010110 ?
b1010110 Q
1^
1v

#500000
0!
b10 !!
b1000000001000 #
b1010101010101010101010101010111 $
0%
1&
05
b1000000001000 7
b1010101010101010101010101010111 8
09
1:
0^
b1000000001000 `
b1010101010101010101010101010111 a
0b
1c
0v

#505000
1!
b1010110 '
b101000 2
15
b1000000001000 ;
b1010101010101010101010101010111 <
0=
1>
b1000000001000 D
b1010101010101010101010101010111 E
0F
1G
1^
b1000000001000 h
1v

#510000
0!
05
0^
0v

#515000
1!
b101001 2
15
b1000000001000 P
1^
1v

#520000
0!
1%
0&
05
19
0:
0^
1b
0c
0v

#525000
1!
b1010111 '
b101010 2
15
1=
0>
1F
0G
1^
b1010111 i
1v

#530000
0!
05
0^
0v

#535000
1!
b1010110 '
b101011 2
15
b1010111 ?
b1010111 Q
1^
1v

#540000
0!
b11 !!
b1000000001100 #
b1010101010101010101010101011000 $
0%
1&
05
b1000000001100 7
b1010101010101010101010101011000 8
09
1:
0^
b1000000001100 `
b1010101010101010101010101011000 a
0b
1c
0v

#545000
1!
b1010111 '
b101100 2
15
b1000000001100 ;
b1010101010101010101010101011000 <
0=
1>
b1000000001100 D
b1010101010101010101010101011000 E
0F
1G
1^
b1000000001100 h
1v

#550000
0!
05
0^
0v

#555000
1!
b101101 2
15
b1000000001100 P
1^
1v

#560000
0!
1%
0&
05
19
0:
0^
1b
0c
0v

#565000
1!
b1011000 '
b101110 2
15
1=
0>
1F
0G
1^
b1011000 i
1v

#570000
0!
05
0^
0v

#575000
1!
b1010111 '
b101111 2
15
b1011000 ?
b1011000 Q
1^
1v

#580000
0!
b100 !!
b1000000010000 #
b1010101010101010101010101011001 $
0%
1&
05
b1000000010000 7
b1010101010101010101010101011001 8
09
1:
0^
b1000000010000 `
b1010101010101010101010101011001 a
0b
1c
0v

#585000
1!
b1011000 '
b110000 2
15
b1000000010000 ;
b1010101010101010101010101011001 <
0=
1>
b1000000010000 D
b1010101010101010101010101011001 E
0F
1G
1^
b1000000010000 h
1v

#590000
0!
05
0^
0v

#595000
1!
0)
1*
b1000000010000 ,
b1010101010101010101010101011001 -
b110001 2
15
b1000000010000 P
1^
0k
1l
b1000000010000 n
b1010101010101010101010101011001 o
b1 r
1v
b1000000010000 x
b1010101010101010101010101011001 y

#600000
0!
1%
0&
05
19
0:
0^
1b
0c
0v

#605000
1!
b1011001 '
0)
1*
b1000 3
15
1=
0>
0A
1B
1F
0G
b1000000010000 J
b1010101010101010101010101011001 K
0S
1T
b1000000010000 V
b1010101010101010101010101011001 W
b1 Z
1^
b1011001 i
1k
0l
b1 t
1v

#610000
0!
05
0^
0v

#615000
1!
b1011000 '
1)
0*
b1001 3
15
b1011001 ?
1A
0B
b1011001 Q
1S
0T
b1 \
1^
1v

#620000
0!
b101 !!
b1000000010100 #
b1010101010101010101010101011010 $
0%
1&
05
b1000000010100 7
b1010101010101010101010101011010 8
09
1:
0^
b1000000010100 `
b1010101010101010101010101011010 a
0b
1c
0v

#625000
1!
b1011001 '
b110010 2
15
b1000000010100 ;
b1010101010101010101010101011010 <
0=
1>
b1000000010100 D
b1010101010101010101010101011010 E
0F
1G
1^
b1000000010100 h
1v

#630000
0!
05
0^
0v

#635000
1!
b110011 2
15
b1000000010100 P
1^
1v

#640000
0!
1%
0&
05
19
0:
0^
1b
0c
0v

#645000
1!
b1011010 '
b110100 2
15
1=
0>
1F
0G
1^
b1011010 i
1v

#650000
0!
05
0^
0v

#655000
1!
b1011001 '
b110101 2
15
b1011010 ?
b1011010 Q
1^
1v

#660000
0!
b110 !!
b1000000011000 #
b1010101010101010101010101011011 $
0%
1&
05
b1000000011000 7
b1010101010101010101010101011011 8
09
1:
0^
b1000000011000 `
b1010101010101010101010101011011 a
0b
1c
0v

#665000
1!
b1011010 '
b110110 2
15
b1000000011000 ;
b1010101010101010101010101011011 <
0=
1>
b1000000011000 D
b1010101010101010101010101011011 E
0F
1G
1^
b1000000011000 h
1v

#670000
0!
05
0^
0v

#675000
1!
b110111 2
15
b1000000011000 P
1^
1v

#680000
0!
1%
0&
05
19
0:
0^
1b
0c
0v

#685000
1!
b1011011 '
b111000 2
15
1=
0>
1F
0G
1^
b1011011 i
1v

#690000
0!
05
0^
0v

#695000
1!
b1011010 '
b111001 2
15
b1011011 ?
b1011011 Q
1^
1v

#700000
0!
b111 !!
b1000000011100 #
b1010101010101010101010101011100 $
0%
1&
05
b1000000011100 7
b1010101010101010101010101011100 8
09
1:
0^
b1000000011100 `
b1010101010101010101010101011100 a
0b
1c
0v

#705000
1!
b1011011 '
b111010 2
15
b1000000011100 ;
b1010101010101010101010101011100 <
0=
1>
b1000000011100 D
b1010101010101010101010101011100 E
0F
1G
1^
b1000000011100 h
1v

#710000
0!
05
0^
0v

#715000
1!
b111011 2
15
b1000000011100 P
1^
1v

#720000
0!
1%
0&
05
19
0:
0^
1b
0c
0v

#725000
1!
b1011100 '
b111100 2
15
1=
0>
1F
0G
1^
b1011100 i
1v

#730000
0!
05
0^
0v

#735000
1!
b1011011 '
b111101 2
15
b1011100 ?
b1011100 Q
1^
1v

#740000
0!
b1000 !!
b1000000100000 #
b1010101010101010101010101011101 $
0%
1&
05
b1000000100000 7
b1010101010101010101010101011101 8
09
1:
0^
b1000000100000 `
b1010101010101010101010101011101 a
0b
1c
0v

#745000
1!
b1011100 '
b111110 2
15
b1000000100000 ;
b1010101010101010101010101011101 <
0=
1>
b1000000100000 D
b1010101010101010101010101011101 E
0F
1G
1^
b1000000100000 h
1v

#750000
0!
05
0^
0v

#755000
1!
0)
1*
b1000000100000 ,
b1010101010101010101010101011101 -
b111111 2
15
b1000000100000 P
1^
0k
1l
b1000000100000 n
b1010101010101010101010101011101 o
b10 r
1v
b1000000100000 x
b1010101010101010101010101011101 y

#760000
0!
1%
0&
05
19
0:
0^
1b
0c
0v

#765000
1!
b1011101 '
0)
1*
b1010 3
15
1=
0>
0A
1B
1F
0G
b1000000100000 J
b1010101010101010101010101011101 K
0S
1T
b1000000100000 V
b1010101010101010101010101011101 W
b10 Z
1^
b1011101 i
1k
0l
b10 t
1v

#770000
0!
05
0^
0v

#775000
1!
b1011100 '
1)
0*
b1011 3
15
b1011101 ?
1A
0B
b1011101 Q
1S
0T
b10 \
1^
1v

#780000
0!
b1001 !!
b1000000100100 #
b1010101010101010101010101011110 $
0%
1&
05
b1000000100100 7
b1010101010101010101010101011110 8
09
1:
0^
b1000000100100 `
b1010101010101010101010101011110 a
0b
1c
0v

#785000
1!
b1011101 '
b1000000 2
15
b1000000100100 ;
b1010101010101010101010101011110 <
0=
1>
b1000000100100 D
b1010101010101010101010101011110 E
0F
1G
1^
b1000000100100 h
1v

#790000
0!
05
0^
0v

#795000
1!
b1000001 2
15
b1000000100100 P
1^
1v

#800000
0!
1%
0&
05
19
0:
0^
1b
0c
0v

#805000
1!
b1011110 '
b1000010 2
15
1=
0>
1F
0G
1^
b1011110 i
1v

#810000
0!
05
0^
0v

#815000
1!
b1011101 '
b1000011 2
15
b1011110 ?
b1011110 Q
1^
1v

#820000
0!
b1010 !!
0%
05
09
0^
0b
0v

#825000
1!
b1011110 '
b1000100 2
15
0=
0F
1^
1v

#830000
0!
05
0^
0v

#835000
1!
b1000101 2
15
1^
1v

#840000
0!
b1010000 4
05
0^
0v

#845000
1!
b1000110 2
15
1^
1v

#850000
0!
05
0^
0v

#855000
1!
b1000111 2
15
1^
1v
